<?xml version="1.0" encoding="UTF-8"?>
<svg width="220px" height="220px" viewBox="0 0 220 220" version="1.1" xmlns="http://www.w3.org/2000/svg" xmlns:xlink="http://www.w3.org/1999/xlink">
    <title>1</title>
    <g id="1" stroke="none" stroke-width="1" fill="none" fill-rule="evenodd">
        <g id="Group" transform="translate(10.000000, 3.000000)" fill="#B3C2D1" fill-rule="nonzero">
            <path d="M30.9376059,134.941176 L54.0623941,134.941176 C57.891966,134.941176 61,131.833142 61,128.003571 L61,104.878782 C61,101.04921 57.891966,97.9411765 54.0623941,97.9411765 L30.9376059,97.9411765 C27.108034,97.9411765 24,101.04921 24,104.878782 L24,128.003571 C24,131.833142 27.108034,134.941176 30.9376059,134.941176 Z" id="Path"></path>
            <path d="M30.9376059,183.941176 L54.0623941,183.941176 C57.891966,183.941176 61,180.833142 61,177.003571 L61,153.878782 C61,150.04921 57.891966,146.941176 54.0623941,146.941176 L30.9376059,146.941176 C27.108034,146.941176 24,150.04921 24,153.878782 L24,177.003571 C24,180.833142 27.108034,183.941176 30.9376059,183.941176 Z" id="Path"></path>
            <path d="M88.9372883,134.941176 L112.062712,134.941176 C115.892108,134.941176 119,131.833142 119,128.003571 L119,104.878782 C119,101.04921 115.892108,97.9411765 112.062712,97.9411765 L88.9372883,97.9411765 C85.1078917,97.9411765 82,101.04921 82,104.878782 L82,128.003571 C82,131.833142 85.1078917,134.941176 88.9372883,134.941176 L88.9372883,134.941176 Z" id="Path"></path>
            <path d="M88.9372883,183.941176 L112.062712,183.941176 C115.892108,183.941176 119,180.833142 119,177.003571 L119,153.878782 C119,150.04921 115.892108,146.941176 112.062712,146.941176 L88.9372883,146.941176 C85.1078917,146.941176 82,150.04921 82,153.878782 L82,177.003571 C82,180.833142 85.1078917,183.941176 88.9372883,183.941176 L88.9372883,183.941176 Z" id="Path"></path>
            <path d="M146.937606,134.941176 L170.062394,134.941176 C173.891966,134.941176 177,131.833142 177,128.003571 L177,104.878782 C177,101.04921 173.891966,97.9411765 170.062394,97.9411765 L146.937606,97.9411765 C143.108034,97.9411765 140,101.04921 140,104.878782 L140,128.003571 C140,131.833142 143.108034,134.941176 146.937606,134.941176 L146.937606,134.941176 Z" id="Path"></path>
            <path d="M175.875,27.5661765 L167.500511,27.5661765 L167.500511,9.81563468 C167.500511,4.91770093 163.748016,0.941176471 159.124489,0.941176471 L150.75,0.941176471 C146.126472,0.941176471 142.375511,4.91770093 142.375511,9.81563468 L142.375511,27.5661765 L58.6244887,27.5661765 L58.6244887,9.81563468 C58.6244887,4.91770093 54.8735276,0.941176471 50.25,0.941176471 L41.8755113,0.941176471 C37.2519836,0.941176471 33.4994887,4.91770093 33.4994887,9.81563468 L33.4994887,27.5661765 L25.125,27.5661765 C11.2728196,27.5661765 0,39.5120002 0,54.1911765 L0,187.316176 C0,201.995353 11.2728196,213.941176 25.125,213.941176 L175.875,213.941176 C189.72718,213.941176 201,201.995353 201,187.316176 L201,54.1911765 C201,39.5120002 189.72718,27.5661765 175.875,27.5661765 Z M184.249489,187.316176 C184.249489,192.205985 180.489326,196.190635 175.875,196.190635 L25.125,196.190635 C20.5106736,196.190635 16.7505113,192.205985 16.7505113,187.316176 L16.7505113,90.0465232 L184.249489,90.0465232 L184.249489,187.316176 Z" id="Shape"></path>
        </g>
    </g>
</svg>