<?xml version="1.0" encoding="UTF-8" standalone="no"?>
<svg
   xmlns:dc="http://purl.org/dc/elements/1.1/"
   xmlns:cc="http://creativecommons.org/ns#"
   xmlns:rdf="http://www.w3.org/1999/02/22-rdf-syntax-ns#"
   xmlns:svg="http://www.w3.org/2000/svg"
   xmlns="http://www.w3.org/2000/svg"
   id="svg12"
   version="1.1"
   viewBox="0 0 220 220"
   height="220px"
   width="220px">
  <metadata
     id="metadata18">
    <rdf:RDF>
      <cc:Work
         rdf:about="">
        <dc:format>image/svg+xml</dc:format>
        <dc:type
           rdf:resource="http://purl.org/dc/dcmitype/StillImage" />
        <dc:title>11</dc:title>
      </cc:Work>
    </rdf:RDF>
  </metadata>
  <defs
     id="defs16" />
  <title
     id="title2">11</title>
  <g
     fill-rule="evenodd"
     fill="none"
     stroke-width="1"
     stroke="none"
     id="11">
    <g
       transform="translate(24.000000, 7.347826)"
       id="Group-8">
      <g
         transform="translate(0.046569, 0.652174)"
         id="Group-5" />
      <g
         transform="matrix(1.2643778,0,0,1.2643778,-8.0037394,-54.491924)"
         id="Group-7">
        <path
           fill="#b3c2d1"
           id="Stroke-49"
           d="m 118.95652,85.142857 c 0,24.618283 -19.969824,44.571433 -44.608694,44.571433 -24.63887,0 -44.608696,-19.95315 -44.608696,-44.571433 0,-24.618286 19.969826,-44.571428 44.608696,-44.571428 24.63887,0 44.608694,19.953142 44.608694,44.571428 z" />
        <path
           fill="#b3c2d1"
           id="Stroke-51"
           d="M 89.217391,133.71429 H 59.478261 C 26.631391,133.71429 0,158.66036 0,189.42857 V 208 h 148.69565 v -18.57143 c 0,-30.76821 -26.63139,-55.71428 -59.478259,-55.71428 z" />
      </g>
    </g>
  </g>
</svg>
